{
    "file": "pflow-track-variables.json",
    "ints": [
        "ftagTruthOriginLabel",
        "ftagTruthTypeLabel",
        "ftagTruthSourceLabel",
        "ftagTruthVertexIndex",
        "SV1VertexIndex",
        "JFVertexIndex"
    ],
    "chars": [
        "leptonID"
    ],
    "halves": [
        "AMVFWeightPV"
    ]
}
