{   "mc21":true,
    "mc24":false,
    "data":false,
    "offline_jets": false,
    "do_track_matching": false,
    "emtopo_jets": true,
    "additional_chains": [],
    "dumper": {
        "jet_collection": "tempEmtopoJets",
        "calibration": {},
        "selection": {
            "minimum_jet_pt": 20000,
            "maximum_jet_absolute_eta": 2.5
        },
        "vertex_collection": "HLT_IDVertex_FS",
        "dl2_configs": [],
        "variables": {
            "jet" : {
                "ints": [
                    "HadronConeExclTruthLabelID",
                    "HadronConeExclExtendedTruthLabelID",
                    "jetPtRank"
                ],
                "floats": [
                    "HadronConeExclTruthLabelPt",
                    "pt"
                ],
                "halves": [
                    "eta",
                    "fastDips_pb",
                    "fastDips_pc",
                    "fastDips_pu"
                ]
            },
            "event" : {
                "compressed" : [
                    "mcEventWeight",
                    "eventNumber",
                    "averageInteractionsPerCrossing",
                    "actualInteractionsPerCrossing",
                    "nPrimaryVertices",
                    "primaryVertexBeamspotZ",
                    "primaryVertexDetectorZUncertainty"
                ]
            },
            "default_mapping": {
                "file": "fragments/default-mapping.json"
            }
        },
        "tracks":[],
        "flow": [{
            "type": "calocluster",
            "output_name": "jetConstituents",
            "accessor": "constituentLinks",
            "n_to_save": 40,
            "variables": {
                "customs": [
                    "pt",
                    "energy",
                    "eta",
                    "phi",
                    "deta",
                    "dphi",
                    "dr"
                ],
                "floats": [
                    "time"
                ],
                "ints": [
                    "nCells"
                ]
            }
        }],

        "truths": [
            {
                "file": "fragments/overlap-leptons.json"
            }
        ],
        "decorate": {
            "jet_aug": false,
            "btag_jes": false,
            "soft_muon": false,
            "track_sv_info": false
        },
        "btagging_link": ""
    }
}

